20

9 9
10
t 4 8 s
f 0 1 w
t 5 7 e
h 5 7 s
h 0 5 n
h 3 1 e
r 2 8 s
f 5 7 s
r 8 6 n
t 6 8 s
9 2

8 4
5
f 2 2 e
h 5 1 n
h 4 3 s
h 4 1 w
h 5 3 e
29 5

9 10
9
t 6 6 s
t 8 9 e
h 2 1 e
h 0 2 w
r 8 1 w
h 2 9 s
t 6 1 n
t 5 9 e
f 2 7 s
49 5

4 3
8
f 1 0 w
h 0 1 e
r 0 1 n
f 1 1 e
f 2 0 w
t 3 1 s
h 3 2 n
t 2 2 s
13 3

7 10
4
r 3 6 n
f 4 2 w
r 3 6 w
f 3 1 s
35 4

5 3
7
r 2 0 e
f 4 1 n
r 3 2 e
f 0 2 s
f 4 1 s
h 2 1 s
h 4 2 e
41 5

6 4
10
t 3 1 w
h 0 2 s
h 5 2 n
r 3 0 e
f 2 2 w
f 3 0 e
t 5 1 w
h 1 3 n
f 4 1 w
h 1 1 w
21 4

3 6
8
r 1 1 s
t 2 4 w
f 2 2 s
t 0 0 e
f 0 4 n
h 0 0 s
t 2 5 s
r 1 2 w
15 5

8 7
9
t 0 4 e
r 1 1 s
f 5 5 s
r 0 0 s
h 1 2 s
r 2 2 s
r 4 5 s
h 6 6 w
h 4 4 s
10 2

4 8
5
h 1 7 n
r 3 4 e
t 0 5 e
f 0 7 w
r 1 1 w
31 2

9 1
7
f 4 0 n
h 4 0 w
t 4 0 n
f 5 0 e
f 0 0 w
r 2 0 w
f 5 0 e
25 2

5 9
5
t 4 1 s
t 4 0 w
r 0 7 n
r 1 2 n
r 2 5 n
44 2

9 5
9
r 5 4 n
f 4 1 n
f 4 3 e
h 5 2 w
f 1 3 n
f 5 2 n
r 7 4 e
r 6 2 e
h 4 4 e
3 1

3 4
7
r 0 0 s
t 0 0 s
t 0 1 n
h 2 3 w
t 2 0 s
f 2 0 w
f 0 3 e
34 3

6 6
8
r 2 2 e
f 0 1 w
h 4 0 n
r 0 4 s
t 4 1 n
f 5 0 n
r 3 0 s
h 1 3 s
30 1

3 4
4
t 1 0 s
h 1 0 s
t 2 3 s
t 0 0 e
21 1

1 5
3
f 0 2 n
f 0 1 n
t 0 2 w
10 2

1 3
1
h 0 1 w
18 1

8 4
5
f 3 3 w
r 2 2 w
f 4 1 n
f 0 0 w
h 6 1 e
45 4

4 7
7
f 2 3 s
f 2 2 s
r 3 1 e
r 0 5 s
t 0 6 s
h 0 2 e
f 2 4 w
5 1
