24

8 3
9
h 4 1 e
h 2 1 s
t 1 2 s
h 5 1 s
h 6 1 w
r 2 2 s
h 7 1 e
r 6 1 s
h 4 2 s
349 84

6 13
8
r 0 10 n
f 4 3 w
t 2 8 s
f 5 4 n
r 0 12 e
h 5 6 n
r 5 9 s
f 0 10 s
292 98

2 1
4
t 0 0 e
h 0 0 e
t 1 0 n
t 0 0 n
109 161

2 6
5
r 1 2 e
r 1 0 s
t 1 1 n
h 0 0 e
t 1 2 n
183 49

10 11
9
r 2 8 s
t 8 2 n
h 8 10 n
h 4 0 n
r 0 0 s
f 6 3 w
h 6 5 n
t 7 1 w
f 4 0 w
27 132

8 5
6
t 1 2 n
t 0 0 s
f 7 2 s
f 0 2 w
t 5 4 w
r 1 3 e
279 83

8 4
6
r 0 1 e
f 1 0 w
t 4 3 n
r 7 0 e
f 4 3 e
h 1 2 e
156 127

1 12
1
r 0 0 s
10 115

9 5
9
f 5 2 s
t 3 4 e
h 2 0 e
h 0 4 n
h 1 1 n
h 6 4 e
t 7 3 n
f 3 4 e
t 4 1 e
354 17

1 6
1
t 0 4 n
42 31

9 8
4
t 5 5 e
r 5 1 e
r 7 6 n
f 0 4 w
163 145

3 13
2
h 1 6 w
f 1 9 n
289 177

1 11
5
t 0 2 w
r 0 10 n
r 0 9 w
h 0 9 s
h 0 6 s
327 61

1 11
2
h 0 0 s
r 0 7 e
390 70

3 12
7
r 2 7 w
t 1 10 w
r 1 3 n
t 1 1 s
f 0 8 s
t 1 8 n
r 1 10 n
27 168

6 7
4
h 3 4 w
r 0 5 s
h 4 2 s
r 5 4 s
117 176

2 1
7
r 0 0 n
f 0 0 n
t 1 0 e
t 0 0 n
f 1 0 e
f 1 0 s
t 1 0 e
359 52

3 4
7
r 0 3 n
r 0 2 e
f 2 2 s
r 2 0 e
f 1 1 w
h 1 2 w
t 1 2 s
148 88

4 4
8
t 1 0 n
t 0 1 w
r 2 3 n
h 1 3 e
h 1 0 s
f 0 2 e
f 2 3 s
f 1 2 n
18 165

8 13
1
t 7 11 e
63 117

6 12
3
f 1 0 w
h 2 0 n
f 3 6 n
215 179

5 13
3
f 4 4 n
t 0 1 n
f 2 4 w
314 40

6 5
5
f 3 4 e
t 1 4 w
h 3 4 n
r 5 0 s
t 5 4 w
116 172

6 9
8
f 0 5 w
h 3 7 n
h 0 1 n
r 4 7 e
t 2 2 w
h 1 0 w
f 2 4 s
t 0 3 s
196 71
